{
  "project_info": {
    "project_number": "330150958",
    "firebase_url": "https://kbmsiapps.firebaseio.com",
    "project_id": "kbmsiapps",
    "storage_bucket": "kbmsiapps.appspot.com"
  },
  "client": [
    {
      "client_info": {
        "mobilesdk_app_id": "1:330150958:android:9d82fa51537aa95e",
        "android_client_info": {
          "package_name": "com.kbmsi.kbmsiapps"
        }
      },
      "oauth_client": [
        {
          "client_id": "330150958-3m3dv48iil3rl4droq0qt0d48lbsgddr.apps.googleusercontent.com",
          "client_type": 3
        }
      ],
      "api_key": [
        {
          "current_key": "AIzaSyDVklo5vlQxGyRJXLPUGCFcOT_vxJDIKkk"
        }
      ],
      "services": {
        "analytics_service": {
          "status": 1
        },
        "appinvite_service": {
          "status": 1,
          "other_platform_oauth_client": []
        },
        "ads_service": {
          "status": 2
        }
      }
    }
  ],
  "configuration_version": "1"
}